%YAML 1.1
%TAG !u! tag:unity3d.com,2011:
--- !u!114 &11400000
MonoBehaviour:
  m_ObjectHideFlags: 0
  m_CorrespondingSourceObject: {fileID: 0}
  m_PrefabInstance: {fileID: 0}
  m_PrefabAsset: {fileID: 0}
  m_GameObject: {fileID: 0}
  m_Enabled: 1
  m_EditorHideFlags: 0
  m_Script: {fileID: 11500000, guid: 491d635b024c406408f080959f2d7265, type: 3}
  m_Name: DatabaseInfo
  m_EditorClassIdentifier: 
  _server: 85.50.124.107
  _port: 3306
  _database: chlorosoft_pp
  _user: chlorosoft_ppu
  _password: projectPedralbes88
