%YAML 1.1
%TAG !u! tag:unity3d.com,2011:
--- !u!1045 &1
EditorBuildSettings:
  m_ObjectHideFlags: 0
  serializedVersion: 2
  m_Scenes:
  - enabled: 1
    path: Assets/Scenes/Logo.unity
    guid: ac3dbee18ee45dc429ba81832c6cd78c
  - enabled: 1
    path: Assets/Scenes/Menu.unity
    guid: d6cb8b18e986e7648b4aab8dc87b378b
  - enabled: 1
    path: Assets/Scenes/GamePlay.unity
    guid: bef6bbe3b844ac947abd7c1f5639bdee
  - enabled: 1
    path: Assets/Scenes/GameOver.unity
    guid: 220af3aac2ebf6f4195a969855eddb06
  m_configObjects: {}
